$GPGGA,202516.710,,,,,0,00,,,M,0.0,M,,0000*52
$GPGSA,A,1,,,,,,,,,,,,,,,*1E
$GPGSV,3,1,10,02,66,310,,24,41,281,,10,37,213,,12,36,270,*74
$GPGSV,3,2,10,05,32,272,,17,25,135,,30,21,306,,04,55,061,*7A
$GPGSV,3,3,10,13,29,076,,23,05,031,*76
$GPRMC,202516.710,V,,,,,,,050107,,*28
$GPGGA,202517.700,,,,,0,00,,,M,0.0,M,,0000*52
$GPGSA,A,1,,,,,,,,,,,,,,,*1E
$GPRMC,202517.700,V,,,,,,,050107,,*28
$GPGGA,202518.700,,,,,0,00,,,M,0.0,M,,0000*5D
$GPGSA,A,1,,,,,,,,,,,,,,,*1E
$GPRMC,202518.700,V,,,,,,,050107,,*27
$GPGGA,202519.700,,,,,0,00,,,M,0.0,M,,0000*5C
$GPGSA,A,1,,,,,,,,,,,,,,,*1E
$GPRMC,202519.700,V,,,,,,,050107,,*26
$GPGGA,202520.700,,,,,0,00,,,M,0.0,M,,0000*56
$GPGSA,A,1,,,,,,,,,,,,,,,*1E
$GPRMC,202520.700,V,,,,,,,050107,,*2C
$GPGGA,202521.710,,,,,0,00,,,M,0.0,M,,0000*56
$GPGSA,A,1,,,,,,,,,,,,,,,*1E
$GPGSV,3,1,10,02,66,310,,24,41,281,,10,37,213,,12,36,270,*74
$GPGSV,3,2,10,05,32,272,,17,25,135,,30,21,306,,04,55,061,*7A
$GPGSV,3,3,10,13,29,076,,23,05,031,*76
$GPRMC,202521.710,V,,,,,,,050107,,*2C
$GPGGA,202522.700,,,,,0,00,,,M,0.0,M,,0000*54
$GPGSA,A,1,,,,,,,,,,,,,,,*1E
$GPRMC,202522.700,V,,,,,,,050107,,*2E
$GPGGA,202523.702,,,,,0,00,,,M,0.0,M,,0000*57
$GPGSA,A,1,,,,,,,,,,,,,,,*1E
$GPRMC,202523.702,V,,,,,,,050107,,*2D
$GPGGA,202524.708,,,,,0,00,,,M,0.0,M,,0000*5A
$GPGSA,A,1,,,,,,,,,,,,,,,*1E
$GPRMC,202524.708,V,,,,,,,050107,,*20
$GPGGA,202525.700,,,,,0,00,,,M,0.0,M,,0000*53
$GPGSA,A,1,,,,,,,,,,,,,,,*1E
$GPRMC,202525.700,V,,,,,,,050107,,*29
$GPGGA,202526.710,,,,,0,00,,,M,0.0,M,,0000*51
$GPGSA,A,1,,,,,,,,,,,,,,,*1E
$GPGSV,3,1,10,02,66,310,,24,41,281,,10,37,213,,12,36,270,*74
$GPGSV,3,2,10,05,32,272,,17,25,135,,30,21,306,,04,55,061,*7A
$GPGSV,3,3,10,13,29,076,,23,05,031,*76
$GPRMC,202526.710,V,,,,,,,050107,,*2B
$GPGGA,202527.700,,,,,0,00,,,M,0.0,M,,0000*51
$GPGSA,A,1,,,,,,,,,,,,,,,*1E
$GPRMC,202527.700,V,,,,,,,050107,,*2B
$GPGGA,202528.708,,,,,0,00,,,M,0.0,M,,0000*56
$GPGSA,A,1,,,,,,,,,,,,,,,*1E
$GPRMC,202528.708,V,,,,,,,050107,,*2C
$GPGGA,202529.700,,,,,0,00,,,M,0.0,M,,0000*5F
$GPGSA,A,1,,,,,,,,,,,,,,,*1E
$GPRMC,202529.700,V,,,,,,,050107,,*25
$GPGGA,202530.700,,,,,0,00,,,M,0.0,M,,0000*57
$GPGSA,A,1,,,,,,,,,,,,,,,*1E
$GPRMC,202530.700,V,,,,,,,050107,,*2D
$GPGGA,202531.710,,,,,0,00,,,M,0.0,M,,0000*57
$GPGSA,A,1,,,,,,,,,,,,,,,*1E
$GPGSV,3,1,10,02,66,310,,24,41,281,,10,37,213,,12,36,270,*74
$GPGSV,3,2,10,05,32,272,,17,25,135,,30,21,306,,04,55,061,*7A
$GPGSV,3,3,10,13,29,076,,23,05,031,*76
$GPRMC,202531.710,V,,,,,,,050107,,*2D
$GPGGA,202532.708,,,,,0,00,,,M,0.0,M,,0000*5D
$GPGSA,A,1,,,,,,,,,,,,,,,*1E
$GPRMC,202532.708,V,,,,,,,050107,,*27
$GPGGA,202533.700,,,,,0,00,,,M,0.0,M,,0000*54
$GPGSA,A,1,,,,,,,,,,,,,,,*1E
$GPRMC,202533.700,V,,,,,,,050107,,*2E
$GPGGA,202534.706,,,,,0,00,,,M,0.0,M,,0000*55
$GPGSA,A,1,,,,,,,,,,,,,,,*1E
$GPRMC,202534.706,V,,,,,,,050107,,*2F
$GPGGA,202535.702,,,,,0,00,,,M,0.0,M,,0000*50
$GPGSA,A,1,,,,,,,,,,,,,,,*1E
$GPRMC,202535.702,V,,,,,,,050107,,*2A
$GPGGA,202536.712,,,,,0,00,,,M,0.0,M,,0000*52
$GPGSA,A,1,,,,,,,,,,,,,,,*1E
$GPGSV,3,1,10,02,66,310,,24,41,281,,10,37,213,,12,36,270,*74
$GPGSV,3,2,10,05,32,272,,17,25,135,,30,21,306,,04,55,061,*7A
$GPGSV,3,3,10,13,29,076,,23,05,031,*76
$GPRMC,202536.712,V,,,,,,,050107,,*28
$GPGGA,202537.700,,,,,0,00,,,M,0.0,M,,0000*50
$GPGSA,A,1,,,,,,,,,,,,,,,*1E
$GPRMC,202537.700,V,,,,,,,050107,,*2A
$GPGGA,202538.702,,,,,0,00,,,M,0.0,M,,0000*5D
$GPGSA,A,1,,,,,,,,,,,,,,,*1E
$GPRMC,202538.702,V,,,,,,,050107,,*27
$GPGGA,202539.702,,,,,0,00,,,M,0.0,M,,0000*5C
$GPGSA,A,1,,,,,,,,,,,,,,,*1E
$GPRMC,202539.702,V,,,,,,,050107,,*26
$GPGGA,202540.702,,,,,0,00,,,M,0.0,M,,0000*52
$GPGSA,A,1,,,,,,,,,,,,,,,*1E
$GPRMC,202540.702,V,,,,,,,050107,,*28
$GPGGA,202541.712,,,,,0,00,,,M,0.0,M,,0000*52
$GPGSA,A,1,,,,,,,,,,,,,,,*1E
$GPGSV,3,1,10,02,66,310,,24,41,281,,10,37,213,,12,36,270,*74
$GPGSV,3,2,10,05,32,272,,17,25,135,,30,21,306,,04,55,061,*7A
$GPGSV,3,3,10,13,29,076,,23,05,031,*76
$GPRMC,202541.712,V,,,,,,,050107,,*28
$GPGGA,202542.702,,,,,0,00,,,M,0.0,M,,0000*50
$GPGSA,A,1,,,,,,,,,,,,,,,*1E
$GPRMC,202542.702,V,,,,,,,050107,,*2A
$GPGGA,202543.702,,,,,0,00,,,M,0.0,M,,0000*51
$GPGSA,A,1,,,,,,,,,,,,,,,*1E
$GPRMC,202543.702,V,,,,,,,050107,,*2B
$GPGGA,202544.708,,,,,0,00,,,M,0.0,M,,0000*5C
$GPGSA,A,1,,,,,,,,,,,,,,,*1E
$GPRMC,202544.708,V,,,,,,,050107,,*26
$GPGGA,202545.702,,,,,0,00,,,M,0.0,M,,0000*57
$GPGSA,A,1,,,,,,,,,,,,,,,*1E
$GPRMC,202545.702,V,,,,,,,050107,,*2D
$GPGGA,202546.712,,,,,0,00,,,M,0.0,M,,0000*55
$GPGSA,A,1,,,,,,,,,,,,,,,*1E
$GPGSV,3,1,10,02,66,310,,24,41,281,,10,37,213,,12,36,270,*74
$GPGSV,3,2,10,05,32,272,,17,25,135,,30,21,306,,04,55,061,*7A
$GPGSV,3,3,10,13,29,076,,23,05,031,*76
$GPRMC,202546.712,V,,,,,,,050107,,*2F
$GPGGA,202547.702,,,,,0,00,,,M,0.0,M,,0000*55
$GPGSA,A,1,,,,,,,,,,,,,,,*1E
$GPRMC,202547.702,V,,,,,,,050107,,*2F
$GPGGA,202548.702,,,,,0,00,,,M,0.0,M,,0000*5A
$GPGSA,A,1,,,,,,,,,,,,,,,*1E
$GPRMC,202548.702,V,,,,,,,050107,,*20
$GPGGA,202549.709,,,,,0,00,,,M,0.0,M,,0000*50
$GPGSA,A,1,,,,,,,,,,,,,,,*1E
$GPRMC,202549.709,V,,,,,,,050107,,*2A
$GPGGA,202550.702,,,,,0,00,,,M,0.0,M,,0000*53
$GPGSA,A,1,,,,,,,,,,,,,,,*1E
$GPRMC,202550.702,V,,,,,,,050107,,*29
$GPGGA,202551.712,,,,,0,00,,,M,0.0,M,,0000*53
$GPGSA,A,1,,,,,,,,,,,,,,,*1E
$GPGSV,3,1,10,02,66,310,,24,41,281,,10,37,213,,12,36,270,*74
$GPGSV,3,2,10,05,32,272,,17,25,135,,30,21,306,,04,55,061,*7A
$GPGSV,3,3,10,13,29,076,,23,05,031,*76
$GPRMC,202551.712,V,,,,,,,050107,,*29
$GPGGA,202552.702,,,,,0,00,,,M,0.0,M,,0000*51
$GPGSA,A,1,,,,,,,,,,,,,,,*1E
$GPRMC,202552.702,V,,,,,,,050107,,*2B
$GPGGA,202553.711,,,,,0,00,,,M,0.0,M,,0000*52
$GPGSA,A,1,,,,,,,,,,,,,,,*1E
$GPRMC,202553.711,V,,,,,,,050107,,*28
$GPGGA,202554.702,,,,,0,00,,,M,0.0,M,,0000*57
$GPGSA,A,1,,,,,,,,,,,,,,,*1E
$GPRMC,202554.702,V,,,,,,,050107,,*2D
$GPGGA,202555.702,,,,,0,00,,,M,0.0,M,,0000*56
$GPGSA,A,1,,,,,,,,,,,,,,,*1E
$GPRMC,202555.702,V,,,,,,,050107,,*2C
$GPGGA,202556.714,,,,,0,00,,,M,0.0,M,,0000*52
$GPGSA,A,1,,,,,,,,,,,,,,,*1E
$GPGSV,3,1,10,02,66,310,,24,41,281,,10,37,213,,12,36,270,*74
$GPGSV,3,2,10,05,32,272,,17,25,135,,30,21,306,,04,55,061,*7A
$GPGSV,3,3,10,13,29,076,,23,05,031,*76
$GPRMC,202556.714,V,,,,,,,050107,,*28
$GPGGA,202557.702,,,,,0,00,,,M,0.0,M,,0000*54
$GPGSA,A,1,,,,,,,,,,,,,,,*1E
$GPRMC,202557.702,V,,,,,,,050107,,*2E
$GPGGA,202558.702,,,,,0,00,,,M,0.0,M,,0000*5B
$GPGSA,A,1,,,,,,,,,,,,,,,*1E
$GPRMC,202558.702,V,,,,,,,050107,,*21
$GPGGA,202559.702,,,,,0,00,,,M,0.0,M,,0000*5A
$GPGSA,A,1,,,,,,,,,,,,,,,*1E
$GPRMC,202559.702,V,,,,,,,050107,,*20
$GPGGA,202600.702,,,,,0,00,,,M,0.0,M,,0000*55
$GPGSA,A,1,,,,,,,,,,,,,,,*1E
$GPRMC,202600.702,V,,,,,,,050107,,*2F
$GPGGA,202601.712,,,,,0,00,,,M,0.0,M,,0000*55
$GPGSA,A,1,,,,,,,,,,,,,,,*1E
$GPGSV,3,1,10,02,66,310,,24,41,281,,10,37,213,,12,36,270,*74
$GPGSV,3,2,10,05,32,272,,17,25,135,,30,21,306,,04,55,061,*7A
$GPGSV,3,3,10,13,29,076,,23,05,031,*76
$GPRMC,202601.712,V,,,,,,,050107,,*2F
$GPGGA,202602.702,,,,,0,00,,,M,0.0,M,,0000*57
$GPGSA,A,1,,,,,,,,,,,,,,,*1E
$GPRMC,202602.702,V,,,,,,,050107,,*2D
$GPGGA,202603.702,,,,,0,00,,,M,0.0,M,,0000*56
$GPGSA,A,1,,,,,,,,,,,,,,,*1E
$GPRMC,202603.702,V,,,,,,,050107,,*2C
$GPGGA,202604.702,,,,,0,00,,,M,0.0,M,,0000*51
$GPGSA,A,1,,,,,,,,,,,,,,,*1E
$GPRMC,202604.702,V,,,,,,,050107,,*2B
$GPGGA,202605.702,,,,,0,00,,,M,0.0,M,,0000*50
$GPGSA,A,1,,,,,,,,,,,,,,,*1E
$GPRMC,202605.702,V,,,,,,,050107,,*2A
$GPGGA,202606.710,,,,,0,00,,,M,0.0,M,,0000*50
$GPGSA,A,1,,,,,,,,,,,,,,,*1E
$GPGSV,3,1,10,02,66,310,,24,41,281,,10,37,213,,12,36,270,*74
$GPGSV,3,2,10,05,32,272,,17,25,135,,30,21,306,,04,55,061,*7A
$GPGSV,3,3,10,13,29,076,,23,05,031,*76
$GPRMC,202606.710,V,,,,,,,050107,,*2A
$GPGGA,202607.706,,,,,0,00,,,M,0.0,M,,0000*56
$GPGSA,A,1,,,,,,,,,,,,,,,*1E
$GPRMC,202607.706,V,,,,,,,050107,,*2C
$GPGGA,202608.700,,,,,0,00,,,M,0.0,M,,0000*5F
$GPGSA,A,1,,,,,,,,,,,,,,,*1E
$GPRMC,202608.700,V,,,,,,,050107,,*25
$GPGGA,202609.700,,,,,0,00,,,M,0.0,M,,0000*5E
$GPGSA,A,1,,,,,,,,,,,,,,,*1E
$GPRMC,202609.700,V,,,,,,,050107,,*24
$GPGGA,202610.709,,,,,0,00,,,M,0.0,M,,0000*5F
$GPGSA,A,1,,,,,,,,,,,,,,,*1E
$GPRMC,202610.709,V,,,,,,,050107,,*25
$GPGGA,202611.710,,,,,0,00,,,M,0.0,M,,0000*56
$GPGSA,A,1,,,,,,,,,,,,,,,*1E
$GPGSV,3,1,10,02,66,310,,24,41,281,,10,37,213,,12,36,270,*74
$GPGSV,3,2,10,05,32,272,,17,25,135,,30,21,306,,04,55,061,*7A
$GPGSV,3,3,10,13,29,076,,23,05,031,*76
$GPRMC,202611.710,V,,,,,,,050107,,*2C
$GPGGA,202612.700,,,,,0,00,,,M,0.0,M,,0000*54
$GPGSA,A,1,,,,,,,,,,,,,,,*1E
$GPRMC,202612.700,V,,,,,,,050107,,*2E
$GPGGA,202613.700,,,,,0,00,,,M,0.0,M,,0000*55
$GPGSA,A,1,,,,,,,,,,,,,,,*1E
$GPRMC,202613.700,V,,,,,,,050107,,*2F
$GPGGA,202614.709,,,,,0,00,,,M,0.0,M,,0000*5B
$GPGSA,A,1,,,,,,,,,,,,,,,*1E
$GPRMC,202614.709,V,,,,,,,050107,,*21
$GPGGA,202615.700,,,,,0,00,,,M,0.0,M,,0000*53
$GPGSA,A,1,,,,,,,,,,,,,,,*1E
$GPRMC,202615.700,V,,,,,,,050107,,*29
$GPGGA,202616.710,,,,,0,00,,,M,0.0,M,,0000*51
$GPGSA,A,1,,,,,,,,,,,,,,,*1E
$GPGSV,3,1,10,02,66,310,,24,41,281,,10,37,213,,12,36,270,*74
$GPGSV,3,2,10,05,32,272,,17,25,135,,30,21,306,,04,55,061,*7A
$GPGSV,3,3,10,13,29,076,,23,05,031,*76
$GPRMC,202616.710,V,,,,,,,050107,,*2B
$GPGGA,202617.707,,,,,0,00,,,M,0.0,M,,0000*56
$GPGSA,A,1,,,,,,,,,,,,,,,*1E
$GPRMC,202617.707,V,,,,,,,050107,,*2C
$GPGGA,202618.700,,,,,0,00,,,M,0.0,M,,0000*5E
$GPGSA,A,1,,,,,,,,,,,,,,,*1E
$GPRMC,202618.700,V,,,,,,,050107,,*24
$GPGGA,202619.700,,,,,0,00,,,M,0.0,M,,0000*5F
$GPGSA,A,1,,,,,,,,,,,,,,,*1E
$GPRMC,202619.700,V,,,,,,,050107,,*25
$GPGGA,202620.700,,,,,0,00,,,M,0.0,M,,0000*55
$GPGSA,A,1,,,,,,,,,,,,,,,*1E
$GPRMC,202620.700,V,,,,,,,050107,,*2F
$GPGGA,202621.710,,,,,0,00,,,M,0.0,M,,0000*55
$GPGSA,A,1,,,,,,,,,,,,,,,*1E
$GPGSV,3,1,10,02,66,310,,24,41,281,,10,37,213,,12,36,270,*74
$GPGSV,3,2,10,05,32,272,,17,25,135,,30,21,306,,04,55,061,*7A
$GPGSV,3,3,10,13,29,076,,23,05,031,*76
$GPRMC,202621.710,V,,,,,,,050107,,*2F
$GPGGA,202622.700,,,,,0,00,,,M,0.0,M,,0000*57
$GPGSA,A,1,,,,,,,,,,,,,,,*1E
$GPRMC,202622.700,V,,,,,,,050107,,*2D
$GPGGA,202623.700,,,,,0,00,,,M,0.0,M,,0000*56
$GPGSA,A,1,,,,,,,,,,,,,,,*1E
$GPRMC,202623.700,V,,,,,,,050107,,*2C
$GPGGA,202624.700,,,,,0,00,,,M,0.0,M,,0000*51
$GPGSA,A,1,,,,,,,,,,,,,,,*1E
$GPRMC,202624.700,V,,,,,,,050107,,*2B
$GPGGA,202625.700,,,,,0,00,,,M,0.0,M,,0000*50
$GPGSA,A,1,,,,,,,,,,,,,,,*1E
$GPRMC,202625.700,V,,,,,,,050107,,*2A
$GPGGA,202626.710,,,,,0,00,,,M,0.0,M,,0000*52
$GPGSA,A,1,,,,,,,,,,,,,,,*1E
$GPGSV,3,1,10,02,66,310,,24,41,281,,10,37,213,,12,36,270,*74
$GPGSV,3,2,10,05,32,272,,17,25,135,,30,21,306,,04,55,061,*7A
$GPGSV,3,3,10,13,29,076,,23,05,031,*76
$GPRMC,202626.710,V,,,,,,,050107,,*28
$GPGGA,202627.700,,,,,0,00,,,M,0.0,M,,0000*52
$GPGSA,A,1,,,,,,,,,,,,,,,*1E
$GPRMC,202627.700,V,,,,,,,050107,,*28
$GPGGA,202628.700,,,,,0,00,,,M,0.0,M,,0000*5D
$GPGSA,A,1,,,,,,,,,,,,,,,*1E
$GPRMC,202628.700,V,,,,,,,050107,,*27
$GPGGA,202629.702,,,,,0,00,,,M,0.0,M,,0000*5E
$GPGSA,A,1,,,,,,,,,,,,,,,*1E
$GPRMC,202629.702,V,,,,,,,050107,,*24
$GPGGA,202630.700,,,,,0,00,,,M,0.0,M,,0000*54
$GPGSA,A,1,,,,,,,,,,,,,,,*1E
$GPRMC,202630.700,V,,,,,,,050107,,*2E
$GPGGA,202631.719,,,,,0,00,,,M,0.0,M,,0000*5D
$GPGSA,A,1,,,,,,,,,,,,,,,*1E
$GPGSV,3,1,10,02,66,310,,24,41,281,,10,37,213,,12,36,270,*74
$GPGSV,3,2,10,05,32,272,,17,25,135,,30,21,306,,04,55,061,*7A
$GPGSV,3,3,10,13,29,076,,23,05,031,*76
$GPRMC,202631.719,V,,,,,,,050107,,*27
$GPGGA,202632.700,,,,,0,00,,,M,0.0,M,,0000*56
$GPGSA,A,1,,,,,,,,,,,,,,,*1E
$GPRMC,202632.700,V,,,,,,,050107,,*2C
$GPGGA,202633.702,,,,,0,00,,,M,0.0,M,,0000*55
$GPGSA,A,1,,,,,,,,,,,,,,,*1E
$GPRMC,202633.702,V,,,,,,,050107,,*2F
$GPGGA,202634.702,,,,,0,00,,,M,0.0,M,,0000*52
$GPGSA,A,1,,,,,,,,,,,,,,,*1E
$GPRMC,202634.702,V,,,,,,,050107,,*28
$GPGGA,202635.708,,,,,0,00,,,M,0.0,M,,0000*59
$GPGSA,A,1,,,,,,,,,,,,,,,*1E
$GPRMC,202635.708,V,,,,,,,050107,,*23
